{
  "borders": [
    {
      "jcalendar": "明治",
      "jalphabet": "M",
      "begin": [ 1868, 1, 25 ]
    },
    {
      "jcalendar": "大正",
      "jalphabet": "T",
      "begin": [ 1912, 7, 30 ]
    },
    {
      "jcalendar": "昭和",
      "jalphabet": "S",
      "begin": [ 1926, 12, 25 ]
    },
    {
      "jcalendar": "平成",
      "jalphabet": "H",
      "begin": [ 1989, 1, 8 ]
    },
    {
      "jcalendar": "令和",
      "jalphabet": "R",
      "begin": [ 2019, 5, 1 ]
    }
  ]
}
